{
    "page": 1,
    "total_results": 10000,
    "total_pages": 500,
    "results": [
      {
        "popularity": 2438.578,
        "vote_count": 41,
        "video": false,
        "poster_path": "/6CoRTJTmijhBLJTUNoVSUNxZMEI.jpg",
        "id": 694919,
        "adult": false,
        "backdrop_path": "/pq0JSpwyT2URytdFG0euztQPAyR.jpg",
        "original_language": "en",
        "original_title": "Money Plane",
        "genre_ids": [
          28
        ],
        "title": "Money Plane",
        "vote_average": 5.5,
        "overview": "A professional thief with $40 million in debt and his family's life on the line must commit one final heist - rob a futuristic airborne casino filled with the world's most dangerous criminals.",
        "release_date": "2020-09-29"
      },
      {
        "popularity": 1324.742,
        "vote_count": 367,
        "video": false,
        "poster_path": "/qzA87Wf4jo1h8JMk9GilyIYvwsA.jpg",
        "id": 539885,
        "adult": false,
        "backdrop_path": "/54yOImQgj8i85u9hxxnaIQBRUuo.jpg",
        "original_language": "en",
        "original_title": "Ava",
        "genre_ids": [
          28,
          80,
          18,
          53
        ],
        "title": "Ava",
        "vote_average": 6,
        "overview": "A black ops assassin is forced to fight for her own survival after a job goes dangerously wrong.",
        "release_date": "2020-08-06"
      },
      {
        "popularity": 1139.529,
        "vote_count": 2101,
        "video": false,
        "poster_path": "/aKx1ARwG55zZ0GpRvU2WrGrCG9o.jpg",
        "id": 337401,
        "adult": false,
        "backdrop_path": "/zzWGRw277MNoCs3zhyG3YmYQsXv.jpg",
        "original_language": "en",
        "original_title": "Mulan",
        "genre_ids": [
          28,
          12,
          18,
          14
        ],
        "title": "Mulan",
        "vote_average": 7.4,
        "overview": "When the Emperor of China issues a decree that one man per family must serve in the Imperial Chinese Army to defend the country from Huns, Hua Mulan, the eldest daughter of an honored warrior, steps in to take the place of her ailing father. She is spirited, determined and quick on her feet. Disguised as a man by the name of Hua Jun, she is tested every step of the way and must harness her innermost strength and embrace her true potential.",
        "release_date": "2020-09-04"
      },
      {
        "popularity": 1071.161,
        "vote_count": 110,
        "video": false,
        "poster_path": "/ugZW8ocsrfgI95pnQ7wrmKDxIe.jpg",
        "id": 724989,
        "adult": false,
        "backdrop_path": "/86L8wqGMDbwURPni2t7FQ0nDjsH.jpg",
        "original_language": "en",
        "original_title": "Hard Kill",
        "genre_ids": [
          28,
          53
        ],
        "title": "Hard Kill",
        "vote_average": 5,
        "overview": "The work of billionaire tech CEO Donovan Chalmers is so valuable that he hires mercenaries to protect it, and a terrorist group kidnaps his daughter just to get it.",
        "release_date": "2020-08-25"
      },
      {
        "popularity": 812.537,
        "vote_count": 192,
        "video": false,
        "poster_path": "/sMO1v5TUf8GOJHbJieDXsgWT2Ud.jpg",
        "id": 438396,
        "adult": false,
        "backdrop_path": "/qGZe9qTuydxyJYQ60XDtEckzLR8.jpg",
        "original_language": "es",
        "original_title": "Orígenes secretos",
        "genre_ids": [
          18,
          53
        ],
        "title": "Unknown Origins",
        "vote_average": 6.2,
        "overview": "In Madrid, Spain, a mysterious serial killer ruthlessly murders his victims by recreating the first appearance of several comic book superheroes. Cosme, a veteran police inspector who is about to retire, works on the case along with the tormented inspector David Valentín and his own son Jorge Elías, a nerdy young man who owns a comic book store.",
        "release_date": "2020-08-28"
      },
      {
        "popularity": 912.242,
        "vote_count": 270,
        "video": false,
        "poster_path": "/uOw5JD8IlD546feZ6oxbIjvN66P.jpg",
        "id": 718444,
        "adult": false,
        "backdrop_path": "/x4UkhIQuHIJyeeOTdcbZ3t3gBSa.jpg",
        "original_language": "pt",
        "original_title": "Rogue",
        "genre_ids": [
          28
        ],
        "title": "Rogue",
        "vote_average": 5.9,
        "overview": "Battle-hardened O’Hara leads a lively mercenary team of soldiers on a daring mission: rescue hostages from their captors in remote Africa. But as the mission goes awry and the team is stranded, O’Hara’s squad must face a bloody, brutal encounter with a gang of rebels.",
        "release_date": "2020-08-20"
      },
      {
        "popularity": 763.887,
        "vote_count": 524,
        "video": false,
        "poster_path": "/sy6DvAu72kjoseZEjocnm2ZZ09i.jpg",
        "id": 581392,
        "adult": false,
        "backdrop_path": "/gEjNlhZhyHeto6Fy5wWy5Uk3A9D.jpg",
        "original_language": "ko",
        "original_title": "반도",
        "genre_ids": [
          28,
          27,
          53
        ],
        "title": "Peninsula",
        "vote_average": 7.1,
        "overview": "A soldier and his team battle hordes of post-apocalyptic zombies in the wastelands of the Korean Peninsula.",
        "release_date": "2020-07-15"
      },
      {
        "popularity": 735.101,
        "vote_count": 121,
        "video": false,
        "poster_path": "/9Rj8l6gElLpRL7Kj17iZhrT5Zuw.jpg",
        "id": 734309,
        "adult": false,
        "backdrop_path": "/7fvdg211A2L0mHddvzyArRuRalp.jpg",
        "original_language": "en",
        "original_title": "Santana",
        "genre_ids": [
          28
        ],
        "title": "Santana",
        "vote_average": 5.7,
        "overview": "Two brothers — one a narcotics agent and the other a general — finally discover the identity of the drug lord who murdered their parents decades ago. They may kill each other before capturing the bad guys.",
        "release_date": "2020-08-28"
      },
      {
        "popularity": 1048.736,
        "vote_count": 1186,
        "video": false,
        "poster_path": "/riYInlsq2kf1AWoGm80JQW5dLKp.jpg",
        "id": 497582,
        "adult": false,
        "backdrop_path": "/kMe4TKMDNXTKptQPAdOF0oZHq3V.jpg",
        "original_language": "en",
        "original_title": "Enola Holmes",
        "genre_ids": [
          12,
          80,
          18,
          9648
        ],
        "title": "Enola Holmes",
        "vote_average": 7.8,
        "overview": "While searching for her missing mother, intrepid teen Enola Holmes uses her sleuthing skills to outsmart big brother Sherlock and help a runaway lord.",
        "release_date": "2020-09-23"
      },
      {
        "popularity": 635.508,
        "vote_count": 1343,
        "video": false,
        "poster_path": "/TnOeov4w0sTtV2gqICqIxVi74V.jpg",
        "id": 605116,
        "adult": false,
        "backdrop_path": "/qVygtf2vU15L2yKS4Ke44U4oMdD.jpg",
        "original_language": "en",
        "original_title": "Project Power",
        "genre_ids": [
          28,
          80,
          878
        ],
        "title": "Project Power",
        "vote_average": 6.6,
        "overview": "An ex-soldier, a teen and a cop collide in New Orleans as they hunt for the source behind a dangerous new pill that grants users temporary superpowers.",
        "release_date": "2020-08-14"
      },
      {
        "popularity": 494.306,
        "vote_count": 96,
        "video": false,
        "poster_path": "/i4kPwXPlM1iy8Jf3S1uuLuwqQAV.jpg",
        "id": 721452,
        "adult": false,
        "backdrop_path": "/riDrpqQtZpXGeiJdlmfcwwPH7nN.jpg",
        "original_language": "en",
        "original_title": "One Night in Bangkok",
        "genre_ids": [
          28,
          53
        ],
        "title": "One Night in Bangkok",
        "vote_average": 7.3,
        "overview": "A hit man named Kai flies into Bangkok, gets a gun, and orders a cab. He offers a professional female driver big money to be his all-night driver. But when she realizes Kai is committing brutal murders at each stop, it's too late to walk away. Meanwhile, an offbeat police detective races to decode the string of slayings before more blood is spilled.",
        "release_date": "2020-08-25"
      },
      {
        "popularity": 486.019,
        "vote_count": 106,
        "video": false,
        "poster_path": "/eDnHgozW8vfOaLHzfpHluf1GZCW.jpg",
        "id": 606234,
        "adult": false,
        "backdrop_path": "/u9YEh2xVAPVTKoaMNlB5tH6pXkm.jpg",
        "original_language": "en",
        "original_title": "Archive",
        "genre_ids": [
          878
        ],
        "title": "Archive",
        "vote_average": 5.8,
        "overview": "2038: George Almore is working on a true human-equivalent AI, and his latest prototype is almost ready. This sensitive phase is also the riskiest as he has a goal that must be hidden at all costs—being reunited with his dead wife.",
        "release_date": "2020-08-13"
      },
      {
        "popularity": 491.156,
        "vote_count": 19,
        "video": false,
        "poster_path": "/4BgSWFMW2MJ0dT5metLzsRWO7IJ.jpg",
        "id": 726739,
        "adult": false,
        "backdrop_path": "/d4fSHbpVnf8r8uRUbo2SalAuC9D.jpg",
        "original_language": "en",
        "original_title": "Cats & Dogs 3: Paws Unite",
        "genre_ids": [
          28,
          35
        ],
        "title": "Cats & Dogs 3: Paws Unite",
        "vote_average": 6.8,
        "overview": "It's been ten years since the creation of the Great Truce, an elaborate joint-species surveillance system designed and monitored by cats and dogs to keep the peace when conflicts arise. But when a tech-savvy villain hacks into wireless networks to use frequencies only heard by cats and dogs, he manipulates them into conflict and the worldwide battle between cats and dogs is BACK ON. Now, a team of inexperienced and untested agents will have to use their old-school animal instincts to restore order and peace between cats and dogs everywhere.",
        "release_date": "2020-10-02"
      },
      {
        "popularity": 529.373,
        "vote_count": 0,
        "video": false,
        "poster_path": "/20de4Rcmy4B0L5zyOc3Nc5F7c0D.jpg",
        "id": 412546,
        "adult": false,
        "backdrop_path": "/orwxqKr7fZVf8B2UnLS5W0fSL7i.jpg",
        "original_language": "en",
        "original_title": "Antrum",
        "genre_ids": [
          27
        ],
        "title": "Antrum",
        "vote_average": 0,
        "overview": "Rumored to have been lost, Antrum appears as a cursed film from the 1970s. Viewers are warned to proceed with caution. It’s said to be a story about a young boy and girl who enter the forest in an attempt to save the soul of their recently deceased pet. They journey to “The Antrum,” they very spot the devil landed after being cast out of heaven. There, the children begin to dig a hole to hell.",
        "release_date": "2020-10-23"
      },
      {
        "popularity": 477.589,
        "vote_count": 87,
        "video": false,
        "poster_path": "/n6hptKS7Y0ZjkYwbqKOK3jz9XAC.jpg",
        "id": 594328,
        "adult": false,
        "backdrop_path": "/lkeBhXGJFRlhI7cBWn8LQQAdZqK.jpg",
        "original_language": "en",
        "original_title": "Phineas and Ferb The Movie: Candace Against the Universe",
        "genre_ids": [
          16,
          35,
          10402,
          878,
          10751,
          10770
        ],
        "title": "Phineas and Ferb The Movie: Candace Against the Universe",
        "vote_average": 7,
        "overview": "Phineas and Ferb travel across the galaxy to rescue their older sister Candace, who has been abducted by aliens and taken to a utopia in a far-off planet, free of her pesky little brothers.",
        "release_date": "2020-08-28"
      },
      {
        "popularity": 398.377,
        "vote_count": 13,
        "video": false,
        "poster_path": "/dKSN0oZCUSNcEd39MnySLYmpUiJ.jpg",
        "id": 735110,
        "adult": false,
        "backdrop_path": "/aahbYclKYfms6Utm5YHQOywsj9N.jpg",
        "original_language": "es",
        "original_title": "Fuego negro",
        "genre_ids": [
          28,
          27,
          9648,
          53
        ],
        "title": "Dark Forces",
        "vote_average": 5.3,
        "overview": "In search of his sister, a renegade criminal seeks answers at a sordid hotel where he encounters a sinister guest and romances a mysterious waitress.",
        "release_date": "2020-08-21"
      },
      {
        "popularity": 387.177,
        "vote_count": 46,
        "video": false,
        "poster_path": "/w6e0XZreiyW4mGlLRHEG8ipff7b.jpg",
        "id": 722603,
        "adult": false,
        "backdrop_path": "/m7QpUAeI2xTCJyAVl9J9z5dBTSb.jpg",
        "original_language": "en",
        "original_title": "Battlefield 2025",
        "genre_ids": [
          28,
          27,
          878
        ],
        "title": "Battlefield 2025",
        "vote_average": 5.8,
        "overview": "Weekend campers, an escaped convict, young lovers and a police officer experience a night of terror when a hostile visitor from another world descends on a small Arizona town.",
        "release_date": "2020-07-07"
      },
      {
        "popularity": 325.547,
        "vote_count": 141,
        "video": false,
        "poster_path": "/3eg0kGC2Xh0vhydJHO37Sp4cmMt.jpg",
        "id": 531499,
        "adult": false,
        "backdrop_path": "/zogWnCSztU8xvabaepQnAwsOtOt.jpg",
        "original_language": "en",
        "original_title": "The Tax Collector",
        "genre_ids": [
          28,
          80,
          18
        ],
        "title": "The Tax Collector",
        "vote_average": 6.1,
        "overview": "David Cuevas is a family man who works as a gangland tax collector for high ranking Los Angeles gang members. He makes collections across the city with his partner Creeper making sure people pay up or will see retaliation. An old threat returns to Los Angeles that puts everything David loves in harm’s way.",
        "release_date": "2020-08-07"
      },
      {
        "popularity": 392.19,
        "vote_count": 413,
        "video": false,
        "poster_path": "/kPzcvxBwt7kEISB9O4jJEuBn72t.jpg",
        "id": 677638,
        "adult": false,
        "backdrop_path": "/pO1SnM5a1fEsYrFaVZW78Wb0zRJ.jpg",
        "original_language": "en",
        "original_title": "We Bare Bears: The Movie",
        "genre_ids": [
          12,
          16,
          35,
          10751
        ],
        "title": "We Bare Bears: The Movie",
        "vote_average": 7.8,
        "overview": "When Grizz, Panda, and Ice Bear's love of food trucks and viral videos went out of hand, it catches the attention of Agent Trout from the National Wildlife Control, who pledges to restore the “natural order” by separating them forever. Chased away from their home, the Bears embark on an epic road trip as they seek refuge in Canada, with their journey being filled with new friends, perilous obstacles, and huge parties. The risky journey also forces the Bears to face how they first met and became brothers, in order to keep their family bond from splitting apart.",
        "release_date": "2020-06-30"
      },
      {
        "popularity": 365.669,
        "vote_count": 378,
        "video": false,
        "poster_path": "/kiX7UYfOpYrMFSAGbI6j1pFkLzQ.jpg",
        "id": 613504,
        "adult": false,
        "backdrop_path": "/r5srC0cqU36n38azFnCyReEksiR.jpg",
        "original_language": "en",
        "original_title": "After We Collided",
        "genre_ids": [
          18,
          10749
        ],
        "title": "After We Collided",
        "vote_average": 6.7,
        "overview": "Tessa finds herself struggling with her complicated relationship with Hardin; she faces a dilemma that could change their lives forever.",
        "release_date": "2020-09-02"
      }
    ]
  }